^C:\USERS\DELL\SOURCE\REPOS\HOMEWORK15\DEBUG\HOMEWORK15.OBJ
C:\USERS\DELL\SOURCE\REPOS\HOMEWORK15\DEBUG\HOMEWORK15.EXE
C:\USERS\DELL\SOURCE\REPOS\HOMEWORK15\DEBUG\HOMEWORK15.ILK
C:\USERS\DELL\SOURCE\REPOS\HOMEWORK15\DEBUG\HOMEWORK15.PDB
